<?xml version="1.0" encoding="utf-8"?>
<!-- Generator: Adobe Illustrator 21.1.0, SVG Export Plug-In . SVG Version: 6.00 Build 0)  -->
<svg version="1.1" id="レイヤー_1" xmlns="http://www.w3.org/2000/svg" xmlns:xlink="http://www.w3.org/1999/xlink" x="0px"
	 y="0px" viewBox="0 0 560 560" style="enable-background:new 0 0 560 560;" xml:space="preserve">
<path id="White_2_" d="M493.5,40h-427C51.9,40,40,51.9,40,66.5v427c0,14.6,11.9,26.5,26.5,26.5h229.9V334.1h-62.6v-72.4h62.6v-53.4
	c0-62,37.9-95.8,93.2-95.8c26.5,0,49.3,2,55.9,2.9v64.8l-38.4,0c-30.1,0-35.9,14.3-35.9,35.3v46.3h71.7l-9.3,72.4h-62.4V520h122.3
	c14.6,0,26.5-11.9,26.5-26.5v-427C520,51.9,508.1,40,493.5,40z"/>
</svg>
