<?xml version="1.0" encoding="utf-8"?>
<!-- Generator: Adobe Illustrator 21.1.0, SVG Export Plug-In . SVG Version: 6.00 Build 0)  -->
<svg version="1.1" id="レイヤー_1" xmlns="http://www.w3.org/2000/svg" xmlns:xlink="http://www.w3.org/1999/xlink" x="0px"
	 y="0px" viewBox="0 0 560 560" style="enable-background:new 0 0 560 560;" xml:space="preserve">
<g transform="translate(0.000000,256.000000) scale(0.100000,-0.100000)">
	<path d="M2540,1425.5c-76.9-33.8-585-266.3-1130.7-517.5C368.7,428,364.9,426.1,417.4,332.3c22.5-39.4,2130.1-1012.5,2276.3-1050
		c95.6-24.4,121.9-24.4,217.5,0c58.1,15,481.9,200.6,941.3,412.5l834.4,384.4l5.6-378.8l3.8-376.9l-56.3-45
		c-73.1-56.3-78.8-151.9-13.1-204.4l45-33.8l-54.4-363.8c-30-198.8-52.5-365.6-46.9-369.4c3.8-5.6,121.9-5.6,258.8-3.8l253.1,5.6
		l-54.4,360l-54.4,361.9l48.8,58.1c26.3,31.9,48.8,63.8,48.8,73.1c0,48.8-43.1,116.3-84.4,131.3l-46.9,18.8v440.6v442.5l120,54.4
		c123.8,56.3,155.6,97.5,133.1,166.9c-7.5,26.3-294.4,166.9-999.4,491.3c-1338.7,617.1-1246.8,579.6-1391.2,579.6
		C2705,1487.4,2652.5,1474.3,2540,1425.5z"/>
	<path d="M1456.2-1051.5l5.6-496.9l65.6-67.5c35.6-37.5,133.1-101.3,215.6-140.6c489.4-234.4,1213.2-277.5,1828.2-110.6
		c193.1,52.5,427.5,168.8,506.3,251.3l65.6,67.5l5.6,496.9c3.8,283.1-1.9,495-11.3,495s-255-108.8-545.6-243.8
		c-290.6-133.1-558.8-251.3-598.1-262.5c-90-24.4-292.5-24.4-382.5,0c-39.4,11.3-307.5,129.4-598.1,262.5
		c-290.6,135-536.3,243.8-545.6,243.8C1458.1-556.4,1452.5-768.3,1456.2-1051.5z"/>
</g>
</svg>
