<?xml version="1.0" encoding="utf-8"?>
<!-- Generator: Adobe Illustrator 21.1.0, SVG Export Plug-In . SVG Version: 6.00 Build 0)  -->
<svg version="1.1" id="レイヤー_1" xmlns="http://www.w3.org/2000/svg" xmlns:xlink="http://www.w3.org/1999/xlink" x="0px"
	 y="0px" viewBox="0 0 560 560" style="enable-background:new 0 0 560 560;" xml:space="preserve">
<style type="text/css">
	.st0{fill-rule:evenodd;clip-rule:evenodd;}
</style>
<path class="st0" d="M274.5,515.2c-0.5-0.5-52.1-46.4-105.6-106.4c-72.4-81.2-113.8-148.4-123-199.5l-1.7-9.5h0.3
	c-4.5-28.4-0.9-60.5,10-87.8c13.9-34.7,37.8-58.3,67.3-66.3c12.2-3.3,24.6-5,36.8-5c56.4,0,106.1,36.8,122.7,90.1
	c7.6-24.1,23.6-46.2,45.3-62.9C350.1,49.8,378.2,40,405.7,40c12.1,0,24.1,1.9,35.5,5.6c29,9.5,52.7,33.4,66.5,67.2
	c11.3,27.4,14.9,58.5,10.4,86.8h0.3l-1.7,9.5c-9.6,53.4-43.8,114.5-101.5,181.5c-54.6,63.4-113,111.5-129.6,124.8l-5.7,4.5
	L274.5,515.2z"/>
</svg>
