<?xml version="1.0" encoding="utf-8"?>
<!-- Generator: Adobe Illustrator 21.1.0, SVG Export Plug-In . SVG Version: 6.00 Build 0)  -->
<svg version="1.1" id="レイヤー_1" xmlns="http://www.w3.org/2000/svg" xmlns:xlink="http://www.w3.org/1999/xlink" x="0px"
	 y="0px" viewBox="0 0 560 560" style="enable-background:new 0 0 560 560;" xml:space="preserve">
<g transform="translate(0.000000,256.000000) scale(0.100000,-0.100000)">
	<path d="M2597.6,2148.4c-467.7-88.3-841.5-435.8-958-894.1c-28.2-110.8-37.6-208.5-37.6-415.1V570.5h-172.8
		c-95.8,0-208.5-9.4-249.8-20.7c-95.8-26.3-206.6-137.1-232.9-232.9C933.4,268.1,925.9,7,925.9-415.6c0-734.4,15-867.8,129.6-1134.5
		c319.3-751.4,1207.8-1207.8,2070-1063.2c813.3,135.2,1420.1,710,1538.4,1455.7c26.3,169.1,24.4,1378.7-1.9,1474.5
		c-26.3,95.8-137.1,206.6-232.9,232.9c-41.3,11.3-154,20.7-247.9,20.7h-174.7v268.6c0,206.6-9.4,304.3-37.6,415.1
		c-103.3,405.7-403.9,723.2-807.7,856.5C3024,2154,2732.9,2174.6,2597.6,2148.4z M3133,1669.4c140.9-69.5,306.2-231,371.9-366.3
		c60.1-122.1,88.3-298.7,88.3-548.5V570.5h-788.9h-788.9v184.1c1.9,443.3,97.7,676.2,351.3,850.9c148.4,103.3,253.6,131.5,465.8,124
		C2994,1723.8,3037.2,1714.4,3133,1669.4z M2903.8-351.8c88.3-24.4,199.1-118.3,231-199.1c67.6-157.8,9.4-366.3-125.9-452.7
		l-67.6-45.1l43.2-184.1c24.4-101.4,48.8-204.7,56.4-232.9l11.3-48.8h-247.9h-247.9l11.3,48.8c7.5,28.2,31.9,131.5,56.4,232.9
		l43.2,184.1l-67.6,45.1c-97.7,63.9-152.1,169.1-152.1,302.4c0,60.1,11.3,131.5,26.3,159.7c39.4,75.1,129.6,154,210.4,182.2
		C2774.2-327.4,2811.8-325.5,2903.8-351.8z"/>
</g>
</svg>
