<?xml version="1.0" encoding="utf-8"?>
<!-- Generator: Adobe Illustrator 21.1.0, SVG Export Plug-In . SVG Version: 6.00 Build 0)  -->
<svg version="1.1" id="レイヤー_1" xmlns="http://www.w3.org/2000/svg" xmlns:xlink="http://www.w3.org/1999/xlink" x="0px"
	 y="0px" viewBox="0 0 560 560" style="enable-background:new 0 0 560 560;" xml:space="preserve">
<g transform="translate(0.000000,256.000000) scale(0.100000,-0.100000)">
	<path d="M1903,1770.8c-142.8-43.2-276.2-167.2-321.3-295c-20.7-58.2-26.3-281.8-26.3-1125.3c0-1027.6,0-1053.9,39.5-1136.6
		c48.8-105.2,142.8-201,242.3-246.1c69.5-31.9,142.8-35.7,905.5-35.7h828.5l353.2-364.5c195.4-201,368.2-370.1,385.1-373.9
		s45.1,0,62,9.4c26.3,15,30.1,62,30.1,372v356.9h208.5c116.5,0,242.3,9.4,281.8,22.5c95.8,28.2,214.2,129.6,266.8,229.2
		c41.3,77,41.3,77,41.3,1166.7v1091.5l-48.8,92.1c-52.6,105.2-171,204.8-276.2,234.8C4794.3,1791.4,1978.2,1793.3,1903,1770.8z
		 M4514.4,1073.8V961.1H3377.8H2241.2v112.7v112.7h1136.6h1136.6L4514.4,1073.8L4514.4,1073.8z M4514.4,359.9V247.2H3377.8H2241.2
		v112.7v112.7h1136.6h1136.6L4514.4,359.9L4514.4,359.9z M3856.9-354v-112.7h-807.8h-807.8V-354v112.7h807.8h807.8V-354z"/>
	<path d="M674.4,970.5c-92.1-31.9-193.5-127.7-238.6-225.4c-31.9-69.6-35.7-142.9-35.7-1119.8c0-1142.2,0-1149.7,109-1262.5
		c112.7-120.2,167.2-133.4,542.9-140.9l341.9-7.5l5.6-236.7c5.6-216,9.4-238.6,41.3-244.2c24.4-5.6,107.1,65.8,281.8,236.7
		l246.1,246.1l554.2,5.6c526,5.6,558,7.5,629.4,47c120.2,63.9,195.4,165.3,223.6,300.6l13.2,58.2l-747.7,7.5
		c-636.9,7.5-762.7,13.2-845.4,39.5c-206.7,67.6-394.5,248-477.2,458.4c-43.2,107.1-45.1,118.4-50.7,988.2l-5.6,877.3h-257.4
		C836,996.8,723.2,987.4,674.4,970.5z"/>
</g>
</svg>
